<?xml version="1.0" encoding="utf-8"?>
<!-- Generator: Adobe Illustrator 25.3.1, SVG Export Plug-In . SVG Version: 6.00 Build 0)  -->
<svg version="1.1" id="Layer_1" xmlns="http://www.w3.org/2000/svg" xmlns:xlink="http://www.w3.org/1999/xlink" x="0px" y="0px"
	 viewBox="0 0 20.2 1" style="enable-background:new 0 0 20.2 1;" xml:space="preserve">
<style type="text/css">
	.st0{fill:#192D4B;}
</style>
<g id="Line_26">
	<path class="st0" d="M10,1H0V0h10V1z"/>
</g>
</svg>
